Noel’s ISSS624 Learning Journey - Take-home Exercise 2
…
od_matrix <- od_data %>%
  # we rename id.x and id.y to make it more intuitive
  rename(origin_id = id.x,
         destin_id = id.y) %>%
  # drop bus stop with no trips recorded
  drop_na() %>%
  # group the number of trips by origin and destination hexagon grids
  group_by(origin_id, destin_id) %>%
  # sum the trips taken by origin and destination
  summarise(trips = sum(TRIPS))

od_matrix

# A tibble: 50,408 × 3
# Groups:   origin_id [636]
   origin_id destin_id trips
   <fct>     <fct>     <dbl>
 1 105       153           3
 2 105       179          34
 3 105       201         183
 4 105       229          18
 5 105       230           1
 6 105       253         145
 7 105       254           6
 8 131       230          16
 9 131       254         250
10 131       493          23
# ℹ 50,398 more rows
…
