ISSS624 - In-Class Exercise 2: Spatial Weights, Spatial Association, and Emerging Hotspot Analysis
…
We will use the following code to compute Local Moran’s I on GDPPC at the county level, using the local_moran() function from sfdep. Contiguity weights using the Queen’s method is used in the code below:

lisa <- wm_q %>%
  mutate(local_moran = local_moran(GDPPC, nb, wt, nsim = 99),
         .before = 1) %>%
  unnest(local_moran)
lisa

Simple feature collection with 88 features and 20 fields
Geometry type: POLYGON
Dimension:     XY
Bounding box:  xmin: 108.7831 ymin: 24.6342 xmax: 114.2544 ymax: 30.12812
Geodetic CRS:  WGS 84
# A tibble: 88 × 21
         ii        eii     var_ii    z_ii    p_ii p_ii_sim p_folded_sim skewness
      <dbl>      <dbl>      <dbl>   <dbl>   <dbl>    <dbl>        <dbl>    <dbl>
 1 -0.00147  0.00177   0.000418   -0.158  0.874       0.82         0.41   -0.812
 2  0.0259   0.00641   0.0105      0.190  0.849       0.96         0.48   -1.09 
 3 -0.0120  -0.0374    0.102       0.0796 0.937       0.76         0.38    0.824
 4  0.00102 -0.0000349 0.00000437  0.506  0.613       0.64         0.32    1.04 
 5  0.0148  -0.00340   0.00165     0.449  0.654       0.5          0.25    1.64 
 6 -0.0388  -0.00339   0.00545    -0.480  0.631       0.82         0.41    0.614
 7  3.37    -0.198     1.41        3.00   0.00266     0.08         0.04    1.46 
 8  1.56    -0.265     0.804       2.04   0.0417      0.08         0.04    0.459
 9  4.42     0.0450    1.79        3.27   0.00108     0.02         0.01    0.746
10 -0.399   -0.0505    0.0859     -1.19   0.234       0.28         0.14   -0.685
# ℹ 78 more rows
# ℹ 13 more variables: kurtosis <dbl>, mean <fct>, median <fct>, pysal <fct>,
#   nb <nb>, wt <list>, NAME_2 <chr>, ID_3 <int>, NAME_3 <chr>,
#   ENGTYPE_3 <chr>, County <chr>, GDPPC <dbl>, geometry <POLYGON [°]>
…
HCSA <- wm_idw %>%
  mutate(local_Gi = local_gstar_perm(
    GDPPC, nb, wt, nsim = 499),
    .before = 1) %>%
  unnest(local_Gi)

HCSA

Simple feature collection with 88 features and 16 fields
Geometry type: POLYGON
Dimension:     XY
Bounding box:  xmin: 108.7831 ymin: 24.6342 xmax: 114.2544 ymax: 30.12812
Geodetic CRS:  WGS 84
# A tibble: 88 × 17
   gi_star   e_gi    var_gi p_value   p_sim p_folded_sim skewness kurtosis nb   
     <dbl>  <dbl>     <dbl>   <dbl>   <dbl>        <dbl>    <dbl>    <dbl> <nb> 
 1  0.0416 0.0114   6.24e-6  0.0472 9.62e-1        0.84     0.42     0.739 <int>
 2 -0.333  0.0112   6.39e-6 -0.301  7.64e-1        0.932    0.466    0.852 <int>
 3  0.281  0.0125   7.83e-6 -0.0911 9.27e-1        0.872    0.436    1.01  <int>
 4  0.411  0.0113   7.14e-6  0.508  6.11e-1        0.568    0.284    0.868 <int>
 5  0.387  0.0114   7.81e-6  0.421  6.74e-1        0.54     0.27     1.25  <int>
 6 -0.368  0.0116   6.81e-6 -0.478  6.33e-1        0.764    0.382    0.914 <int>
 7  3.56   0.0146   7.04e-6  2.84   4.56e-3        0.032    0.016    1.09  <int>
 8  2.52   0.0135   5.08e-6  1.69   9.14e-2        0.148    0.074    0.797 <int>
 9  4.56   0.0141   4.57e-6  4.12   3.71e-5        0.008    0.004    1.03  <int>
10  1.16   0.0109   4.92e-6  1.35   1.76e-1        0.208    0.104    0.597 <int>
# ℹ 78 more rows
# ℹ 8 more variables: wt <list>, NAME_2 <chr>, ID_3 <int>, NAME_3 <chr>,
#   ENGTYPE_3 <chr>, County <chr>, GDPPC <dbl>, geometry <POLYGON [°]>
…
The map above shows that there is one hot spot area and two cold spot areas. The hot spot area coincides with the High-High cluster identified using local Moran’s I method.

8. Emerging Hot Spot Analysis

Emerging Hot Spot Analysis (EHSA) is a spatio-temporal analysis method to reveal and describe how hot spot and cold spots evolve over time.

8.1. Creating a Time Series Cube

GDPPC_st <- spacetime(GDPPC, hunan,
                      .loc_col = "County",
                      .time_col = "Year")
GDPPC_st

# A tibble: 1,496 × 3
    Year County    GDPPC
 * <dbl> <chr>     <dbl>
 1  2005 Longshan   3469
 2  2005 Changsha  24612
 3  2005 Wangcheng 14659
 4  2005 Ningxiang 11687
 5  2005 Liuyang   13406
 6  2005 Zhuzhou    8546
 7  2005 You       10944
 8  2005 Chaling    8040
 9  2005 Yanling    7383
10  2005 Liling    11688
# ℹ 1,486 more rows
…
