ISSS624 - Hands-on Exercise 1
…
Importing Aspatial Data

The listings.csv file downloaded from Inside Airbnb is a aspatial dataset as it does not contain geospatial data but it has fields that capture the x- and y-coordinates of the data points.

We will import the CSV file into R, save it as a tibble data frame, before converting it to a simple feature data frame.

listings <- read_csv("data/aspatial/listings.csv")

We will use the following code to examine if the data file was imported correctly:

list(listings)

[[1]]
# A tibble: 3,483 × 75
       id listing_url            scrape_id last_scraped source name  description
    <dbl> <chr>                      <dbl> <date>       <chr>  <chr> <chr>      
 1  71609 https://www.airbnb.co…   2.02e13 2023-09-23   previ… Vill… For 3 room…
 2  71896 https://www.airbnb.co…   2.02e13 2023-09-23   previ… Home… <b>The spa…
 3  71903 https://www.airbnb.co…   2.02e13 2023-09-23   previ… Home… Like your …
 4 275343 https://www.airbnb.co…   2.02e13 2023-09-23   city … Rent… **IMPORTAN…
 5 275344 https://www.airbnb.co…   2.02e13 2023-09-23   city … Rent… Lovely hom…
 6 289234 https://www.airbnb.co…   2.02e13 2023-09-23   previ… Home… This whole…
 7 294281 https://www.airbnb.co…   2.02e13 2023-09-23   city … Rent… I have 3 b…
 8 324945 https://www.airbnb.co…   2.02e13 2023-09-23   city … Rent… **IMPORTAN…
 9 330095 https://www.airbnb.co…   2.02e13 2023-09-23   city … Rent… **IMPORTAN…
10 369141 https://www.airbnb.co…   2.02e13 2023-09-23   city … Plac… A room in …
# ℹ 3,473 more rows
# ℹ 68 more variables: neighborhood_overview <chr>, picture_url <chr>,
#   host_id <dbl>, host_url <chr>, host_name <chr>, host_since <date>,
#   host_location <chr>, host_about <chr>, host_response_time <chr>,
#   host_response_rate <chr>, host_acceptance_rate <chr>,
#   host_is_superhost <lgl>, host_thumbnail_url <chr>, host_picture_url <chr>,
#   host_neighbourhood <chr>, host_listings_count <dbl>, …
…
