ISSS624 - Take-home Exercise 1
…
WD_AM_idw <- WD_AM_lisa %>%
  mutate(nb = st_knn(geometry, k=8),
         wt = st_inverse_distance(nb, geometry,
                                   scale = 1,
                                   alpha = 1),
         .before = 1)
WD_AM_idw

Simple feature collection with 1119 features and 4 fields
Geometry type: POLYGON
Dimension:     XY
Bounding box:  xmin: 3822.239 ymin: 27415.39 xmax: 48855.56 ymax: 50082.05
Projected CRS: SVY21 / Singapore TM
# A tibble: 1,119 × 5
   nb        wt        id    TRIPS                                      geometry
 * <nb>      <list>    <fct> <dbl>                                 <POLYGON [m]>
 1 <int [8]> <dbl [8]> 223     103 ((4110.914 27915.39, 3822.239 28082.05, 3822…
 2 <int [8]> <dbl [8]> 259      52 ((4399.589 28415.39, 4110.914 28582.05, 4110…
 3 <int [8]> <dbl [8]> 261      78 ((4399.589 30415.39, 4110.914 30582.05, 4110…
 4 <int [8]> <dbl [8]> 295    1367 ((4688.264 29915.39, 4399.589 30082.05, 4399…
 5 <int [8]> <dbl [8]> 296      53 ((4688.264 30915.39, 4399.589 31082.05, 4399…
 6 <int [8]> <dbl [8]> 329     185 ((4976.939 28415.39, 4688.264 28582.05, 4688…
 7 <int [8]> <dbl [8]> 330     152 ((4976.939 29415.39, 4688.264 29582.05, 4688…
 8 <int [8]> <dbl [8]> 331    1034 ((4976.939 30415.39, 4688.264 30582.05, 4688…
 9 <int [8]> <dbl [8]> 332      60 ((4976.939 31415.39, 4688.264 31582.05, 4688…
10 <int [8]> <dbl [8]> 333     399 ((4976.939 32415.39, 4688.264 32582.05, 4688…
# ℹ 1,109 more rows

Using IDW, we will compute Local Moran’s I on TRIPS based on 100 simulations for each study period. The code uses the local_moran() function from the sfdep package:

lisa_WD_AM <- WD_AM_idw %>%
  mutate(local_moran = local_moran(TRIPS, nb, wt, nsim = 99),
         .before = 1) %>%
  unnest(local_moran)
lisa_WD_AM

Simple feature collection with 1119 features and 16 fields
Geometry type: POLYGON
Dimension:     XY
Bounding box:  xmin: 3822.239 ymin: 27415.39 xmax: 48855.56 ymax: 50082.05
Projected CRS: SVY21 / Singapore TM
# A tibble: 1,119 × 17
        ii      eii  var_ii  z_ii   p_ii p_ii_sim p_folded_sim skewness kurtosis
     <dbl>    <dbl>   <dbl> <dbl>  <dbl>    <dbl>        <dbl>    <dbl>    <dbl>
 1 0.00300  8.49e-5 2.00e-6  2.06 0.0394     0.02         0.01   -0.951    0.666
 2 0.00402 -3.30e-4 5.09e-6  1.93 0.0537     0.02         0.01   -0.938    0.774
 3 0.00481 -3.71e-4 7.86e-6  1.85 0.0644     0.02         0.01   -1.08     2.44 
 4 0.00498  6.34e-4 4.55e-6  2.04 0.0417     0.02         0.01   -0.880    0.944
 5 0.00532 -1.42e-4 7.83e-6  1.95 0.0511     0.02         0.01   -1.60     6.05 
 6 0.00474 -1.20e-4 4.39e-6  2.32 0.0204     0.02         0.01   -1.21     3.51 
 7 0.00498 -4.01e-4 6.38e-6  2.13 0.0332     0.02         0.01   -0.938    1.27 
 8 0.00585  6.12e-5 1.14e-5  1.71 0.0870     0.02         0.01   -1.65     3.62 
 9 0.00540 -3.28e-4 9.35e-6  1.87 0.0608     0.02         0.01   -1.03     1.34 
10 0.00460 -1.15e-4 7.55e-6  1.71 0.0866     0.02         0.01   -0.906    1.13 
# ℹ 1,109 more rows
# ℹ 8 more variables: mean <fct>, median <fct>, pysal <fct>, nb <nb>,
#   wt <list>, id <fct>, TRIPS <dbl>, geometry <POLYGON [m]>
…
WD_PM_idw <- WD_PM_lisa %>%
  mutate(nb = st_knn(geometry, k=8),
         wt = st_inverse_distance(nb, geometry,
                                   scale = 1,
                                   alpha = 1),
         .before = 1)
WD_PM_idw

Simple feature collection with 1127 features and 4 fields
Geometry type: POLYGON
Dimension:     XY
Bounding box:  xmin: 3822.239 ymin: 27415.39 xmax: 48855.56 ymax: 50082.05
Projected CRS: SVY21 / Singapore TM
# A tibble: 1,127 × 5
   nb        wt        id    TRIPS                                      geometry
 * <nb>      <list>    <fct> <dbl>                                 <POLYGON [m]>
 1 <int [8]> <dbl [8]> 223     390 ((4110.914 27915.39, 3822.239 28082.05, 3822…
 2 <int [8]> <dbl [8]> 259     114 ((4399.589 28415.39, 4110.914 28582.05, 4110…
 3 <int [8]> <dbl [8]> 261     291 ((4399.589 30415.39, 4110.914 30582.05, 4110…
 4 <int [8]> <dbl [8]> 295    3196 ((4688.264 29915.39, 4399.589 30082.05, 4399…
 5 <int [8]> <dbl [8]> 296     241 ((4688.264 30915.39, 4399.589 31082.05, 4399…
 6 <int [8]> <dbl [8]> 329    1905 ((4976.939 28415.39, 4688.264 28582.05, 4688…
 7 <int [8]> <dbl [8]> 330     583 ((4976.939 29415.39, 4688.264 29582.05, 4688…
 8 <int [8]> <dbl [8]> 331    2472 ((4976.939 30415.39, 4688.264 30582.05, 4688…
 9 <int [8]> <dbl [8]> 332     368 ((4976.939 31415.39, 4688.264 31582.05, 4688…
10 <int [8]> <dbl [8]> 333     114 ((4976.939 32415.39, 4688.264 32582.05, 4688…
# ℹ 1,117 more rows

lisa_WD_PM <- WD_PM_idw %>%
  mutate(local_moran = local_moran(TRIPS, nb, wt, nsim = 99),
         .before = 1) %>%
  unnest(local_moran)
lisa_WD_PM

Simple feature collection with 1127 features and 16 fields
Geometry type: POLYGON
Dimension:     XY
Bounding box:  xmin: 3822.239 ymin: 27415.39 xmax: 48855.56 ymax: 50082.05
Projected CRS: SVY21 / Singapore TM
# A tibble: 1,127 × 17
        ii      eii  var_ii  z_ii   p_ii p_ii_sim p_folded_sim skewness kurtosis
     <dbl>    <dbl>   <dbl> <dbl>  <dbl>    <dbl>        <dbl>    <dbl>    <dbl>
 1 0.00199 -3.80e-5 1.56e-6  1.62 0.104      0.02         0.01   -1.35     1.68 
 2 0.00267 -6.70e-4 4.96e-6  1.50 0.134      0.02         0.01   -1.93     4.14 
 3 0.00313 -3.46e-4 4.47e-6  1.65 0.0998     0.02         0.01   -1.45     2.12 
 4 0.00297 -9.25e-5 4.94e-6  1.38 0.168      0.02         0.01   -2.67     8.76 
 5 0.00348  1.11e-4 4.53e-6  1.58 0.114      0.02         0.01   -1.60     3.06 
 6 0.00295  3.73e-4 2.45e-6  1.65 0.0998     0.02         0.01   -1.37     1.78 
 7 0.00320 -1.83e-4 6.36e-6  1.34 0.180      0.02         0.01   -2.17     6.52 
 8 0.00358  1.47e-4 4.11e-6  1.69 0.0903     0.02         0.01   -0.991    0.163
 9 0.00349 -1.46e-4 6.44e-6  1.43 0.151      0.02         0.01   -2.90    12.6  
10 0.00307  3.66e-5 4.12e-6  1.49 0.135      0.02         0.01   -1.78     4.33 
# ℹ 1,117 more rows
# ℹ 8 more variables: mean <fct>, median <fct>, pysal <fct>, nb <nb>,
#   wt <list>, id <fct>, TRIPS <dbl>, geometry <POLYGON [m]>
…
WE_AM_idw <- WE_AM_lisa %>%
  mutate(nb = st_knn(geometry, k=8),
         wt = st_inverse_distance(nb, geometry,
                                   scale = 1,
                                   alpha = 1),
         .before = 1)
WE_AM_idw

Simple feature collection with 1107 features and 4 fields
Geometry type: POLYGON
Dimension:     XY
Bounding box:  xmin: 4110.914 ymin: 27415.39 xmax: 48855.56 ymax: 50082.05
Projected CRS: SVY21 / Singapore TM
# A tibble: 1,107 × 5
   nb        wt        id    TRIPS                                      geometry
 * <nb>      <list>    <fct> <dbl>                                 <POLYGON [m]>
 1 <int [8]> <dbl [8]> 259      26 ((4399.589 28415.39, 4110.914 28582.05, 4110…
 2 <int [8]> <dbl [8]> 261      52 ((4399.589 30415.39, 4110.914 30582.05, 4110…
 3 <int [8]> <dbl [8]> 295     494 ((4688.264 29915.39, 4399.589 30082.05, 4399…
 4 <int [8]> <dbl [8]> 296      76 ((4688.264 30915.39, 4399.589 31082.05, 4399…
 5 <int [8]> <dbl [8]> 329     187 ((4976.939 28415.39, 4688.264 28582.05, 4688…
 6 <int [8]> <dbl [8]> 330      68 ((4976.939 29415.39, 4688.264 29582.05, 4688…
 7 <int [8]> <dbl [8]> 331     691 ((4976.939 30415.39, 4688.264 30582.05, 4688…
 8 <int [8]> <dbl [8]> 332      45 ((4976.939 31415.39, 4688.264 31582.05, 4688…
 9 <int [8]> <dbl [8]> 333      26 ((4976.939 32415.39, 4688.264 32582.05, 4688…
10 <int [8]> <dbl [8]> 364      21 ((5265.614 28915.39, 4976.939 29082.05, 4976…
# ℹ 1,097 more rows

lisa_WE_AM <- WE_AM_idw %>%
  mutate(local_moran = local_moran(TRIPS, nb, wt, nsim = 99),
         .before = 1) %>%
  unnest(local_moran)
lisa_WE_AM

Simple feature collection with 1107 features and 16 fields
Geometry type: POLYGON
Dimension:     XY
Bounding box:  xmin: 4110.914 ymin: 27415.39 xmax: 48855.56 ymax: 50082.05
Projected CRS: SVY21 / Singapore TM
# A tibble: 1,107 × 17
        ii      eii  var_ii  z_ii   p_ii p_ii_sim p_folded_sim skewness kurtosis
     <dbl>    <dbl>   <dbl> <dbl>  <dbl>    <dbl>        <dbl>    <dbl>    <dbl>
 1 0.00295 -1.59e-4 2.27e-6  2.06 0.0391     0.02         0.01   -1.02     1.20 
 2 0.00415  2.60e-4 4.68e-6  1.80 0.0724     0.02         0.01   -1.22     2.06 
 3 0.00427  5.22e-5 5.08e-6  1.87 0.0616     0.02         0.01   -1.15     1.22 
 4 0.00454 -1.23e-4 7.02e-6  1.76 0.0786     0.02         0.01   -1.75     4.13 
 5 0.00387 -5.80e-5 5.65e-6  1.65 0.0982     0.02         0.01   -1.84     4.40 
 6 0.00436 -3.65e-5 5.87e-6  1.82 0.0693     0.02         0.01   -1.31     1.72 
 7 0.00476 -4.91e-4 9.25e-6  1.73 0.0842     0.02         0.01   -1.54     3.88 
 8 0.00460  1.34e-4 7.58e-6  1.62 0.104      0.02         0.01   -1.57     3.12 
 9 0.00376 -4.62e-4 9.97e-6  1.34 0.182      0.02         0.01   -2.06     5.02 
10 0.00466  4.39e-4 4.03e-6  2.10 0.0354     0.02         0.01   -0.439   -0.384
# ℹ 1,097 more rows
# ℹ 8 more variables: mean <fct>, median <fct>, pysal <fct>, nb <nb>,
#   wt <list>, id <fct>, TRIPS <dbl>, geometry <POLYGON [m]>
…
WE_PM_idw <- WE_PM_lisa %>%
  mutate(nb = st_knn(geometry, k=8),
         wt = st_inverse_distance(nb, geometry,
                                   scale = 1,
                                   alpha = 1),
         .before = 1)
WE_PM_idw

Simple feature collection with 1109 features and 4 fields
Geometry type: POLYGON
Dimension:     XY
Bounding box:  xmin: 3822.239 ymin: 27415.39 xmax: 48855.56 ymax: 50082.05
Projected CRS: SVY21 / Singapore TM
# A tibble: 1,109 × 5
   nb        wt        id    TRIPS                                      geometry
 * <nb>      <list>    <fct> <dbl>                                 <POLYGON [m]>
 1 <int [8]> <dbl [8]> 223      56 ((4110.914 27915.39, 3822.239 28082.05, 3822…
 2 <int [8]> <dbl [8]> 259      14 ((4399.589 28415.39, 4110.914 28582.05, 4110…
 3 <int [8]> <dbl [8]> 261     100 ((4399.589 30415.39, 4110.914 30582.05, 4110…
 4 <int [8]> <dbl [8]> 295     766 ((4688.264 29915.39, 4399.589 30082.05, 4399…
 5 <int [8]> <dbl [8]> 296      55 ((4688.264 30915.39, 4399.589 31082.05, 4399…
 6 <int [8]> <dbl [8]> 329     346 ((4976.939 28415.39, 4688.264 28582.05, 4688…
 7 <int [8]> <dbl [8]> 330     122 ((4976.939 29415.39, 4688.264 29582.05, 4688…
 8 <int [8]> <dbl [8]> 331    1030 ((4976.939 30415.39, 4688.264 30582.05, 4688…
 9 <int [8]> <dbl [8]> 332      49 ((4976.939 31415.39, 4688.264 31582.05, 4688…
10 <int [8]> <dbl [8]> 333     153 ((4976.939 32415.39, 4688.264 32582.05, 4688…
# ℹ 1,099 more rows

lisa_WE_PM <- WE_PM_idw %>%
  mutate(local_moran = local_moran(TRIPS, nb, wt, nsim = 99),
         .before = 1) %>%
  unnest(local_moran)
lisa_WE_PM

Simple feature collection with 1109 features and 16 fields
Geometry type: POLYGON
Dimension:     XY
Bounding box:  xmin: 3822.239 ymin: 27415.39 xmax: 48855.56 ymax: 50082.05
Projected CRS: SVY21 / Singapore TM
# A tibble: 1,109 × 17
        ii      eii  var_ii  z_ii   p_ii p_ii_sim p_folded_sim skewness kurtosis
     <dbl>    <dbl>   <dbl> <dbl>  <dbl>    <dbl>        <dbl>    <dbl>    <dbl>
 1 0.00205 -8.74e-5 2.30e-6  1.41 0.158      0.02         0.01    -1.63     2.29
 2 0.00276  2.41e-4 2.34e-6  1.65 0.0991     0.02         0.01    -1.42     1.93
 3 0.00318 -1.94e-4 6.17e-6  1.36 0.174      0.02         0.01    -1.88     5.36
 4 0.00315  9.95e-5 3.80e-6  1.56 0.118      0.02         0.01    -1.96     4.81
 5 0.00351 -1.05e-4 5.64e-6  1.52 0.128      0.02         0.01    -1.79     4.77
 6 0.00311  3.02e-4 3.26e-6  1.55 0.120      0.02         0.01    -1.57     3.07
 7 0.00335 -3.99e-4 5.60e-6  1.58 0.114      0.02         0.01    -1.78     4.10
 8 0.00347 -2.88e-4 6.51e-6  1.47 0.141      0.02         0.01    -1.42     1.91
 9 0.00358 -4.60e-5 8.35e-6  1.25 0.210      0.02         0.01    -3.65    17.3 
10 0.00284  2.59e-4 3.51e-6  1.38 0.169      0.06         0.03    -1.51     3.05
# ℹ 1,099 more rows
# ℹ 8 more variables: mean <fct>, median <fct>, pysal <fct>, nb <nb>,
#   wt <list>, id <fct>, TRIPS <dbl>, geometry <POLYGON [m]>
…
